%YAML 1.1
%TAG !u! tag:unity3d.com,2011:
--- !u!21 &2100000
Material:
  serializedVersion: 6
  m_ObjectHideFlags: 0
  m_CorrespondingSourceObject: {fileID: 0}
  m_PrefabInstance: {fileID: 0}
  m_PrefabAsset: {fileID: 0}
  m_Name: MaleMat 1
  m_Shader: {fileID: 4800000, guid: e70ddca29d306414a9d7dbb9cdba5251, type: 3}
  m_ShaderKeywords: TCP2_NONE
  m_LightmapFlags: 4
  m_EnableInstancingVariants: 0
  m_DoubleSidedGI: 0
  m_CustomRenderQueue: -1
  stringTagMap: {}
  disabledShaderPasses: []
  m_SavedProperties:
    serializedVersion: 3
    m_TexEnvs:
    - _BaseMap:
        m_Texture: {fileID: 2800000, guid: 3e4b9a9a55c6f474499fb58c88f96304, type: 3}
        m_Scale: {x: 1, y: 1}
        m_Offset: {x: 0, y: 0}
    - _BumpMap:
        m_Texture: {fileID: 0}
        m_Scale: {x: 1, y: 1}
        m_Offset: {x: 0, y: 0}
    - _DetailAlbedoMap:
        m_Texture: {fileID: 0}
        m_Scale: {x: 1, y: 1}
        m_Offset: {x: 0, y: 0}
    - _DetailMask:
        m_Texture: {fileID: 0}
        m_Scale: {x: 1, y: 1}
        m_Offset: {x: 0, y: 0}
    - _DetailNormalMap:
        m_Texture: {fileID: 0}
        m_Scale: {x: 1, y: 1}
        m_Offset: {x: 0, y: 0}
    - _EmissionMap:
        m_Texture: {fileID: 0}
        m_Scale: {x: 1, y: 1}
        m_Offset: {x: 0, y: 0}
    - _MainTex:
        m_Texture: {fileID: 2800000, guid: 3e4b9a9a55c6f474499fb58c88f96304, type: 3}
        m_Scale: {x: 1, y: 1}
        m_Offset: {x: 0, y: 0}
    - _MatCapTex:
        m_Texture: {fileID: 0}
        m_Scale: {x: 1, y: 1}
        m_Offset: {x: 0, y: 0}
    - _MetallicGlossMap:
        m_Texture: {fileID: 0}
        m_Scale: {x: 1, y: 1}
        m_Offset: {x: 0, y: 0}
    - _OcclusionMap:
        m_Texture: {fileID: 0}
        m_Scale: {x: 1, y: 1}
        m_Offset: {x: 0, y: 0}
    - _ParallaxMap:
        m_Texture: {fileID: 0}
        m_Scale: {x: 1, y: 1}
        m_Offset: {x: 0, y: 0}
    m_Floats:
    - _BumpScale: 1
    - _Cutoff: 0.5
    - _DetailNormalMapScale: 1
    - _DstBlend: 0
    - _GlossMapScale: 1
    - _Glossiness: 0
    - _GlossyReflections: 1
    - _LightSmoothness: 0
    - _LightThreshold: 0.082
    - _MKEditorShowDetailBehavior: 0
    - _MKEditorShowDissolveBehavior: 0
    - _MKEditorShowLightBehavior: 1
    - _MKEditorShowMainBehavior: 1
    - _MKEditorShowOutlineBehavior: 1
    - _MKEditorShowReflectionBehavior: 0
    - _MKEditorShowRenderBehavior: 1
    - _MKEditorShowRimBehavior: 1
    - _MKEditorShowShadowBehavior: 1
    - _MKEditorShowSketchBehavior: 0
    - _MKEditorShowSpecularBehavior: 1
    - _MKEditorShowTranslucentBehavior: 0
    - _Metallic: 0
    - _Mode: 0
    - _OcclusionStrength: 1
    - _OutlineSize: 0
    - _OutlineWidth: 1.73
    - _Parallax: 0.02
    - _RampSmoothing: 0.499
    - _RampThreshold: 0.1
    - _ReceiveShadowsOff: 1
    - _RimIntensity: 0.135
    - _RimMaxVert: 1.751
    - _RimMinVert: 0.639
    - _RimSize: 3
    - _RimSmoothness: 0.5
    - _ShadowIntensity: 0.3
    - _ShadowLineSmoothing: 0.1
    - _ShadowLineStrength: 0.1
    - _ShadowLineThreshold: 0.01
    - _Shininess: 0.095
    - _SmoothnessTextureChannel: 0
    - _SpecularHighlights: 1
    - _SpecularIntensity: 0.013
    - _SrcBlend: 1
    - _UVSec: 0
    - _UseMatCap: 0
    - _UseRim: 0
    - _ZWrite: 1
    - __BeginGroup_ShadowHSV: 1
    - __EndGroup: 0
    - __dummy__: 0
    - __outline_gui_dummy__: 0
    m_Colors:
    - _BaseColor: {r: 1, g: 1, b: 1, a: 1}
    - _Color: {r: 1, g: 1, b: 1, a: 1}
    - _EmissionColor: {r: 0, g: 0, b: 0, a: 1}
    - _HColor: {r: 0.764151, g: 0.764151, b: 0.764151, a: 1}
    - _HighlightColor: {r: 1, g: 1, b: 1, a: 1}
    - _MatCapColor: {r: 1, g: 1, b: 1, a: 1}
    - _OutlineColor: {r: 0, g: 0, b: 0, a: 1}
    - _OutlineColorVertex: {r: 0, g: 0, b: 0, a: 1}
    - _RimColor: {r: 0.8, g: 0.8, b: 0.8, a: 0.5}
    - _RimDirVert: {r: 0, g: 0, b: 1, a: 1}
    - _SColor: {r: 0.26415092, g: 0.26415092, b: 0.26415092, a: 1}
    - _ShadowColor: {r: 0, g: 0, b: 0, a: 1}
    - _ShadowLineColor: {r: 0, g: 0, b: 0, a: 1}
    - _SpecColor: {r: 1, g: 1, b: 1, a: 0.5}
