%YAML 1.1
%TAG !u! tag:unity3d.com,2011:
--- !u!114 &11400000
MonoBehaviour:
  m_ObjectHideFlags: 0
  m_CorrespondingSourceObject: {fileID: 0}
  m_PrefabInstance: {fileID: 0}
  m_PrefabAsset: {fileID: 0}
  m_GameObject: {fileID: 0}
  m_Enabled: 1
  m_EditorHideFlags: 0
  m_Script: {fileID: 11500000, guid: bcfbd0977e5c69648a9ef1712f713c86, type: 3}
  m_Name: itedataPawn
  m_EditorClassIdentifier: 
  itemPrefabs:
  - {fileID: 4841538137482084213, guid: 7e81453e28bdcfe4799ac863e70ee378, type: 3}
  - {fileID: 4841538137482084213, guid: 3b0bd95efe5835c41ad19e884ce32738, type: 3}
  - {fileID: 4841538137482084213, guid: f8b398f815109d54680fe03b4f74ca17, type: 3}
  - {fileID: 4841538137482084213, guid: d5cd3764e67e48148b7297b675e16f65, type: 3}
  - {fileID: 4841538137482084213, guid: c6e029421f35d42498bc20e2b0342767, type: 3}
  - {fileID: 4841538137482084213, guid: 5c2e07a4a63a04946997e306bbd82e5d, type: 3}
  - {fileID: 4841538137482084213, guid: f1f6414c362b20b41ac4c9d3df8b6b79, type: 3}
  - {fileID: 4841538137482084213, guid: 931f4218c417e054ab807397632d2b52, type: 3}
  - {fileID: 4841538137482084213, guid: 4559d4d5839bfe74a95e3514cc8a3717, type: 3}
  - {fileID: 4841538137482084213, guid: 5387a449ccd118b469a8273d7a4db15e, type: 3}
  - {fileID: 4841538137482084213, guid: a9723e6df45f45a48aa7ac745d649803, type: 3}
  - {fileID: 4841538137482084213, guid: c07ac5fdbd9b0a744a85d58afc3bda71, type: 3}
  - {fileID: 4841538137482084213, guid: e7ef7041fb2c0e74782112f616f67a21, type: 3}
  - {fileID: 4841538137482084213, guid: dddbbe9314dad2b4f98daba4e6fbe1c6, type: 3}
  - {fileID: 4841538137482084213, guid: 02de8a63911465241b49b3ee7c6948d1, type: 3}
  - {fileID: 4841538137482084213, guid: d6b4038775f470448ae20d5bc7c520a7, type: 3}
  nonPolishedMats:
  - {fileID: 2100000, guid: 57a784faaf1e4334986a463393202a1f, type: 2}
  - {fileID: 2100000, guid: 740a132dd7dfb1946abba596e2728ed6, type: 2}
  - {fileID: 2100000, guid: 6b58b3206d82e234e927b2dbe67d76cc, type: 2}
  - {fileID: 2100000, guid: 8f06a246d7aac704eb3c8e967180cb2f, type: 2}
  - {fileID: 2100000, guid: 26a0004a98aab8544b5205be9746973d, type: 2}
  - {fileID: 2100000, guid: cb40ff78938ad324f8cc6c14eeab79bb, type: 2}
  - {fileID: 2100000, guid: 4bd69a0ea9b6944458b0b7906c579078, type: 2}
  - {fileID: 2100000, guid: af22da06fe461914b9041563ce28ccb2, type: 2}
  - {fileID: 2100000, guid: 422d3b6006d1b0c44b73a4e60272dfa5, type: 2}
  - {fileID: 2100000, guid: 42bb233b745ad314ba246f0f8477d78c, type: 2}
  - {fileID: 2100000, guid: bde5eb5d8c8b4e14598e2fae9386ae0e, type: 2}
  - {fileID: 2100000, guid: 3fe26677313888841aabbb64fc0130ea, type: 2}
  - {fileID: 2100000, guid: 75070d0d3bcd98244b93f66a32e51eec, type: 2}
  - {fileID: 2100000, guid: d8b5c78a875b59a4d99bcc66142742aa, type: 2}
  - {fileID: 2100000, guid: 956ff1669fb983a469a0859827afe083, type: 2}
  - {fileID: 2100000, guid: 5d1285b67c60b914b83b84b0484bd684, type: 2}
  polishedMats:
  - {fileID: 2100000, guid: 8c68b1f3542b4014f8863d94c5b30744, type: 2}
  - {fileID: 2100000, guid: cce00122439d210449e19540ad75dec8, type: 2}
  - {fileID: 2100000, guid: d9632ccc2c2ccd74f922abd6a8436490, type: 2}
  - {fileID: 2100000, guid: 117bce7479915db4ab752ae4017150c0, type: 2}
  - {fileID: 2100000, guid: 34818571636d94f43923a146e2d38210, type: 2}
  - {fileID: 2100000, guid: 6b0ef099a165bb845b95d2fc1d606fa7, type: 2}
  - {fileID: 2100000, guid: 44d4efaf881ea4d4d9476d7eae547d37, type: 2}
  - {fileID: 2100000, guid: 5e9f648fe8aa66944be0f13ee1a51f41, type: 2}
  - {fileID: 2100000, guid: 837d7f2f4b40f16469827223e6252ec6, type: 2}
  - {fileID: 2100000, guid: 6d044cdbadcef794ea9f195c59270bad, type: 2}
  - {fileID: 2100000, guid: 7e3e2481fcf9181489e0173f3bf1a4b8, type: 2}
  - {fileID: 2100000, guid: eb216e71cdaf6074c869a785a83eed25, type: 2}
  - {fileID: 2100000, guid: 68d2b99dc99b8bb458214696b56ff3df, type: 2}
  - {fileID: 2100000, guid: 4a776a4975f228b46ab46f5a044e273c, type: 2}
  - {fileID: 2100000, guid: e737e76474412044b920f6181f5bd0a8, type: 2}
  - {fileID: 2100000, guid: 687aaf77d4cc28948a186d0a884e1510, type: 2}
  texNonPolished:
  - {fileID: 2800000, guid: 2de1aba893b34d44f80b7e3179a3f757, type: 3}
  - {fileID: 2800000, guid: 3d3e2d381216ebc46886634779b74166, type: 3}
  - {fileID: 2800000, guid: 10d3bb0fff5b64f4d86748d132d513b1, type: 3}
  - {fileID: 2800000, guid: 3da1957bc94456247b005c8be846ae8c, type: 3}
  - {fileID: 2800000, guid: 71cf38b249bcc244ba9edf47030aeee8, type: 3}
  - {fileID: 2800000, guid: 106a3ca0d24341f439515aef72cbaa96, type: 3}
  - {fileID: 2800000, guid: a9ca12a2dabf87f4a88566fb1e87083b, type: 3}
  - {fileID: 2800000, guid: 16f8fa71d6768944e89ad454d2cf6a84, type: 3}
  - {fileID: 2800000, guid: fd189c2b70ff36740a3b7bb9d9239dc6, type: 3}
  - {fileID: 2800000, guid: 61989646a89300b48ac2def3ab916cbb, type: 3}
  - {fileID: 2800000, guid: 33b396dd8ba470f46a225ac151e4b940, type: 3}
  - {fileID: 2800000, guid: 4304fd398c3b03d489851c6e50eacd12, type: 3}
  - {fileID: 2800000, guid: f4266324076eb0e4d90077736bc7ec91, type: 3}
  - {fileID: 2800000, guid: 58ea5bf00f216af4c8c667810695588d, type: 3}
  - {fileID: 2800000, guid: 3d5a395cc5e6a1a4eb69605dc96d6528, type: 3}
  - {fileID: 2800000, guid: 677e3cf8963bd7949976fdfe3e768666, type: 3}
  texPolished:
  - {fileID: 2800000, guid: 54b987b16e077644f93d6b60b3723c2f, type: 3}
  - {fileID: 2800000, guid: 4b6ce4bd1ce8dcd44829d694ee1f451f, type: 3}
  - {fileID: 2800000, guid: 6c530a92e1995e648b6be1dfdf7efcf2, type: 3}
  - {fileID: 2800000, guid: dbae7097e92ba804b8c19a9cc1996a4c, type: 3}
  - {fileID: 2800000, guid: e691c4c3bd092e14b936906b42181ed6, type: 3}
  - {fileID: 2800000, guid: 7b4dcb2d14d88d54bb079a2e68de6a12, type: 3}
  - {fileID: 2800000, guid: a3dc3cb4cc7636643b4dcbb304d7f303, type: 3}
  - {fileID: 2800000, guid: c438f26c177022744a6daa68f92b5fe2, type: 3}
  - {fileID: 2800000, guid: c072f4076f748d54e8c5d24cf87c7c87, type: 3}
  - {fileID: 2800000, guid: b1a01426a7d1d2e499d5811edfc7dab4, type: 3}
  - {fileID: 2800000, guid: 66a462bb516da8247b2f30cb7ff3f253, type: 3}
  - {fileID: 2800000, guid: fe24ea1f65819c24283e535530f80ee1, type: 3}
  - {fileID: 2800000, guid: ad489ed86207df34aa59167afbdd084c, type: 3}
  - {fileID: 2800000, guid: 7ef15afa828157f49a3def7bde2deeb3, type: 3}
  - {fileID: 2800000, guid: b2ddd6bbcbf4eda4887124199984de18, type: 3}
  - {fileID: 2800000, guid: 61afdff48911f2a4ea6f3429cb55fb3d, type: 3}
  itemPPs:
  - {fileID: 21300000, guid: 15ae42bd821861043838e1ca5212297b, type: 3}
  - {fileID: 21300000, guid: 7f9eb272e8fd49c479c1331e0849277a, type: 3}
  - {fileID: 21300000, guid: 505a6eefbdf13fd4881fdb7f7e0c546f, type: 3}
  - {fileID: 21300000, guid: 607be41fc17aa074ea4be55baf3c3480, type: 3}
  - {fileID: 21300000, guid: 67f97bebc756450478ed0811b6c2c6d0, type: 3}
  - {fileID: 21300000, guid: 17706120887c9e943b338e03947b9f96, type: 3}
  - {fileID: 21300000, guid: b077a5ec9c11cb14e955587d9cad078f, type: 3}
  - {fileID: 21300000, guid: 9a6803c3c73b51f4a844f07ccd50e5cb, type: 3}
  - {fileID: 21300000, guid: f769ce5c33765f643b07b3e7dea48aeb, type: 3}
  - {fileID: 21300000, guid: 4ad210ba481f83f488d76a0ca6ee1a06, type: 3}
  - {fileID: 21300000, guid: f4f42b9e9fb6db84997e68f165796e40, type: 3}
  - {fileID: 21300000, guid: df6871d223182aa49ab4891907d2c295, type: 3}
  - {fileID: 21300000, guid: 7954526c14c247344a1453314057e1f4, type: 3}
  - {fileID: 21300000, guid: c5fb23266aebf3243b5236830a964b9e, type: 3}
  - {fileID: 21300000, guid: 8606995cba135ba47a2f8a7c2cbdaa5d, type: 3}
  - {fileID: 21300000, guid: ee573e53ac18e2a42b697e2af5e6196e, type: 3}
  charPPs:
  - {fileID: 21300000, guid: 9d10abf578352364d99f14a067236ed7, type: 3}
  - {fileID: 21300000, guid: 1f375b2f1512a57479c8b2aa4cc8a527, type: 3}
  - {fileID: 21300000, guid: ff8e7cded960150408d390a9c62fa307, type: 3}
  - {fileID: 21300000, guid: ede68b69f31b12447922317b5e454fc4, type: 3}
  - {fileID: 21300000, guid: 900504a82c0c6f548a2187fc9b613447, type: 3}
  - {fileID: 21300000, guid: f45062e32790f9142b72e6423b008425, type: 3}
  - {fileID: 21300000, guid: 31ea82c1c7b81be4c9267932188ff15f, type: 3}
  - {fileID: 21300000, guid: f77a255df851beb4997964726dbf488d, type: 3}
  - {fileID: 21300000, guid: 37f0db59f860c0741aa690f28c533e91, type: 3}
