%YAML 1.1
%TAG !u! tag:unity3d.com,2011:
--- !u!1001 &2365646681173308075
PrefabInstance:
  m_ObjectHideFlags: 0
  serializedVersion: 2
  m_Modification:
    m_TransformParent: {fileID: 0}
    m_Modifications:
    - target: {fileID: 553229645811798376, guid: a5fa1412926a2c3469b08abf14ca7e43,
        type: 3}
      propertyPath: m_LocalPosition.x
      value: 0
      objectReference: {fileID: 0}
    - target: {fileID: 553229645811798376, guid: a5fa1412926a2c3469b08abf14ca7e43,
        type: 3}
      propertyPath: m_LocalPosition.y
      value: 0
      objectReference: {fileID: 0}
    - target: {fileID: 553229645811798376, guid: a5fa1412926a2c3469b08abf14ca7e43,
        type: 3}
      propertyPath: m_LocalPosition.z
      value: 0
      objectReference: {fileID: 0}
    - target: {fileID: 553229645811798376, guid: a5fa1412926a2c3469b08abf14ca7e43,
        type: 3}
      propertyPath: m_LocalRotation.x
      value: 0
      objectReference: {fileID: 0}
    - target: {fileID: 553229645811798376, guid: a5fa1412926a2c3469b08abf14ca7e43,
        type: 3}
      propertyPath: m_LocalRotation.y
      value: 0
      objectReference: {fileID: 0}
    - target: {fileID: 553229645811798376, guid: a5fa1412926a2c3469b08abf14ca7e43,
        type: 3}
      propertyPath: m_LocalRotation.z
      value: 0
      objectReference: {fileID: 0}
    - target: {fileID: 553229645811798376, guid: a5fa1412926a2c3469b08abf14ca7e43,
        type: 3}
      propertyPath: m_LocalRotation.w
      value: 1
      objectReference: {fileID: 0}
    - target: {fileID: 553229645811798376, guid: a5fa1412926a2c3469b08abf14ca7e43,
        type: 3}
      propertyPath: m_RootOrder
      value: 0
      objectReference: {fileID: 0}
    - target: {fileID: 553229645811798376, guid: a5fa1412926a2c3469b08abf14ca7e43,
        type: 3}
      propertyPath: m_LocalEulerAnglesHint.x
      value: 0
      objectReference: {fileID: 0}
    - target: {fileID: 553229645811798376, guid: a5fa1412926a2c3469b08abf14ca7e43,
        type: 3}
      propertyPath: m_LocalEulerAnglesHint.y
      value: 0
      objectReference: {fileID: 0}
    - target: {fileID: 553229645811798376, guid: a5fa1412926a2c3469b08abf14ca7e43,
        type: 3}
      propertyPath: m_LocalEulerAnglesHint.z
      value: 0
      objectReference: {fileID: 0}
    - target: {fileID: 4720055893051134016, guid: a5fa1412926a2c3469b08abf14ca7e43,
        type: 3}
      propertyPath: visual
      value: 
      objectReference: {fileID: 5077257845882902385, guid: 6306deedd56463d428b0cb8e4f5ed349,
        type: 3}
    - target: {fileID: 4720055893051134016, guid: a5fa1412926a2c3469b08abf14ca7e43,
        type: 3}
      propertyPath: title
      value: Painting
      objectReference: {fileID: 0}
    - target: {fileID: 4720055893051134016, guid: a5fa1412926a2c3469b08abf14ca7e43,
        type: 3}
      propertyPath: type
      value: Antique
      objectReference: {fileID: 0}
    - target: {fileID: 4720055893051134016, guid: a5fa1412926a2c3469b08abf14ca7e43,
        type: 3}
      propertyPath: condition
      value: Bad
      objectReference: {fileID: 0}
    - target: {fileID: 4720055893051134016, guid: a5fa1412926a2c3469b08abf14ca7e43,
        type: 3}
      propertyPath: buyValue
      value: 120
      objectReference: {fileID: 0}
    - target: {fileID: 4720055893051134016, guid: a5fa1412926a2c3469b08abf14ca7e43,
        type: 3}
      propertyPath: EstValue
      value: 250
      objectReference: {fileID: 0}
    - target: {fileID: 4720055893051134016, guid: a5fa1412926a2c3469b08abf14ca7e43,
        type: 3}
      propertyPath: itemImage
      value: 
      objectReference: {fileID: 21300000, guid: 9a6803c3c73b51f4a844f07ccd50e5cb,
        type: 3}
    - target: {fileID: 4720055893051134016, guid: a5fa1412926a2c3469b08abf14ca7e43,
        type: 3}
      propertyPath: itemId
      value: 7
      objectReference: {fileID: 0}
    - target: {fileID: 4720055893051134016, guid: a5fa1412926a2c3469b08abf14ca7e43,
        type: 3}
      propertyPath: itemType
      value: 1
      objectReference: {fileID: 0}
    - target: {fileID: 4720055893051134016, guid: a5fa1412926a2c3469b08abf14ca7e43,
        type: 3}
      propertyPath: itemCond
      value: 0
      objectReference: {fileID: 0}
    - target: {fileID: 4720055893051134016, guid: a5fa1412926a2c3469b08abf14ca7e43,
        type: 3}
      propertyPath: nonPolishedMat
      value: 
      objectReference: {fileID: 2100000, guid: af22da06fe461914b9041563ce28ccb2, type: 2}
    - target: {fileID: 4720055893051134016, guid: a5fa1412926a2c3469b08abf14ca7e43,
        type: 3}
      propertyPath: polishedMat
      value: 
      objectReference: {fileID: 2100000, guid: 5e9f648fe8aa66944be0f13ee1a51f41, type: 2}
    - target: {fileID: 7198140165033463262, guid: a5fa1412926a2c3469b08abf14ca7e43,
        type: 3}
      propertyPath: m_Name
      value: ItemToSell Variant 7 painting
      objectReference: {fileID: 0}
    - target: {fileID: 7198140165033463262, guid: a5fa1412926a2c3469b08abf14ca7e43,
        type: 3}
      propertyPath: m_IsActive
      value: 1
      objectReference: {fileID: 0}
    m_RemovedComponents: []
  m_SourcePrefab: {fileID: 100100000, guid: a5fa1412926a2c3469b08abf14ca7e43, type: 3}
