%YAML 1.1
%TAG !u! tag:unity3d.com,2011:
--- !u!1001 &2365646681173308075
PrefabInstance:
  m_ObjectHideFlags: 0
  serializedVersion: 2
  m_Modification:
    m_TransformParent: {fileID: 0}
    m_Modifications:
    - target: {fileID: 553229645811798376, guid: a5fa1412926a2c3469b08abf14ca7e43,
        type: 3}
      propertyPath: m_LocalPosition.x
      value: 0
      objectReference: {fileID: 0}
    - target: {fileID: 553229645811798376, guid: a5fa1412926a2c3469b08abf14ca7e43,
        type: 3}
      propertyPath: m_LocalPosition.y
      value: 0
      objectReference: {fileID: 0}
    - target: {fileID: 553229645811798376, guid: a5fa1412926a2c3469b08abf14ca7e43,
        type: 3}
      propertyPath: m_LocalPosition.z
      value: 0
      objectReference: {fileID: 0}
    - target: {fileID: 553229645811798376, guid: a5fa1412926a2c3469b08abf14ca7e43,
        type: 3}
      propertyPath: m_LocalRotation.x
      value: 0
      objectReference: {fileID: 0}
    - target: {fileID: 553229645811798376, guid: a5fa1412926a2c3469b08abf14ca7e43,
        type: 3}
      propertyPath: m_LocalRotation.y
      value: 0
      objectReference: {fileID: 0}
    - target: {fileID: 553229645811798376, guid: a5fa1412926a2c3469b08abf14ca7e43,
        type: 3}
      propertyPath: m_LocalRotation.z
      value: 0
      objectReference: {fileID: 0}
    - target: {fileID: 553229645811798376, guid: a5fa1412926a2c3469b08abf14ca7e43,
        type: 3}
      propertyPath: m_LocalRotation.w
      value: 1
      objectReference: {fileID: 0}
    - target: {fileID: 553229645811798376, guid: a5fa1412926a2c3469b08abf14ca7e43,
        type: 3}
      propertyPath: m_RootOrder
      value: 0
      objectReference: {fileID: 0}
    - target: {fileID: 553229645811798376, guid: a5fa1412926a2c3469b08abf14ca7e43,
        type: 3}
      propertyPath: m_LocalEulerAnglesHint.x
      value: 0
      objectReference: {fileID: 0}
    - target: {fileID: 553229645811798376, guid: a5fa1412926a2c3469b08abf14ca7e43,
        type: 3}
      propertyPath: m_LocalEulerAnglesHint.y
      value: 0
      objectReference: {fileID: 0}
    - target: {fileID: 553229645811798376, guid: a5fa1412926a2c3469b08abf14ca7e43,
        type: 3}
      propertyPath: m_LocalEulerAnglesHint.z
      value: 0
      objectReference: {fileID: 0}
    - target: {fileID: 4720055893051134016, guid: a5fa1412926a2c3469b08abf14ca7e43,
        type: 3}
      propertyPath: visual
      value: 
      objectReference: {fileID: 3823904940121688828, guid: e027f4513dcfcfa48be56fb36bf0a7dc,
        type: 3}
    - target: {fileID: 4720055893051134016, guid: a5fa1412926a2c3469b08abf14ca7e43,
        type: 3}
      propertyPath: title
      value: Dagger
      objectReference: {fileID: 0}
    - target: {fileID: 4720055893051134016, guid: a5fa1412926a2c3469b08abf14ca7e43,
        type: 3}
      propertyPath: type
      value: Vintage
      objectReference: {fileID: 0}
    - target: {fileID: 4720055893051134016, guid: a5fa1412926a2c3469b08abf14ca7e43,
        type: 3}
      propertyPath: condition
      value: Good
      objectReference: {fileID: 0}
    - target: {fileID: 4720055893051134016, guid: a5fa1412926a2c3469b08abf14ca7e43,
        type: 3}
      propertyPath: buyValue
      value: 70
      objectReference: {fileID: 0}
    - target: {fileID: 4720055893051134016, guid: a5fa1412926a2c3469b08abf14ca7e43,
        type: 3}
      propertyPath: EstValue
      value: 150
      objectReference: {fileID: 0}
    - target: {fileID: 4720055893051134016, guid: a5fa1412926a2c3469b08abf14ca7e43,
        type: 3}
      propertyPath: itemImage
      value: 
      objectReference: {fileID: 21300000, guid: 67f97bebc756450478ed0811b6c2c6d0,
        type: 3}
    - target: {fileID: 4720055893051134016, guid: a5fa1412926a2c3469b08abf14ca7e43,
        type: 3}
      propertyPath: itemId
      value: 4
      objectReference: {fileID: 0}
    - target: {fileID: 4720055893051134016, guid: a5fa1412926a2c3469b08abf14ca7e43,
        type: 3}
      propertyPath: itemType
      value: 4
      objectReference: {fileID: 0}
    - target: {fileID: 4720055893051134016, guid: a5fa1412926a2c3469b08abf14ca7e43,
        type: 3}
      propertyPath: nonPolishedMat
      value: 
      objectReference: {fileID: 2100000, guid: 26a0004a98aab8544b5205be9746973d, type: 2}
    - target: {fileID: 4720055893051134016, guid: a5fa1412926a2c3469b08abf14ca7e43,
        type: 3}
      propertyPath: polishedMat
      value: 
      objectReference: {fileID: 2100000, guid: 34818571636d94f43923a146e2d38210, type: 2}
    - target: {fileID: 7198140165033463262, guid: a5fa1412926a2c3469b08abf14ca7e43,
        type: 3}
      propertyPath: m_Name
      value: ItemToSell Variant 4 Dagger
      objectReference: {fileID: 0}
    - target: {fileID: 7198140165033463262, guid: a5fa1412926a2c3469b08abf14ca7e43,
        type: 3}
      propertyPath: m_IsActive
      value: 1
      objectReference: {fileID: 0}
    m_RemovedComponents: []
  m_SourcePrefab: {fileID: 100100000, guid: a5fa1412926a2c3469b08abf14ca7e43, type: 3}
