%YAML 1.1
%TAG !u! tag:unity3d.com,2011:
--- !u!1 &8913017916530631445
GameObject:
  m_ObjectHideFlags: 0
  m_CorrespondingSourceObject: {fileID: 0}
  m_PrefabInstance: {fileID: 0}
  m_PrefabAsset: {fileID: 0}
  serializedVersion: 6
  m_Component:
  - component: {fileID: 8913017916530631444}
  m_Layer: 0
  m_Name: 13 gun
  m_TagString: Untagged
  m_Icon: {fileID: 0}
  m_NavMeshLayer: 0
  m_StaticEditorFlags: 0
  m_IsActive: 1
--- !u!4 &8913017916530631444
Transform:
  m_ObjectHideFlags: 0
  m_CorrespondingSourceObject: {fileID: 0}
  m_PrefabInstance: {fileID: 0}
  m_PrefabAsset: {fileID: 0}
  m_GameObject: {fileID: 8913017916530631445}
  m_LocalRotation: {x: 0, y: 0, z: 0, w: 1}
  m_LocalPosition: {x: 0, y: 0, z: 0}
  m_LocalScale: {x: 1, y: 1, z: 1}
  m_Children:
  - {fileID: 5179802991251222916}
  m_Father: {fileID: 0}
  m_RootOrder: 0
  m_LocalEulerAnglesHint: {x: 0, y: 0, z: 0}
--- !u!1001 &187162919259167390
PrefabInstance:
  m_ObjectHideFlags: 0
  serializedVersion: 2
  m_Modification:
    m_TransformParent: {fileID: 8913017916530631444}
    m_Modifications:
    - target: {fileID: -4216859302048453862, guid: 7c355c76844ccef44baab58dc486ea0b,
        type: 3}
      propertyPath: m_LocalPosition.x
      value: 0.185
      objectReference: {fileID: 0}
    - target: {fileID: -4216859302048453862, guid: 7c355c76844ccef44baab58dc486ea0b,
        type: 3}
      propertyPath: m_LocalPosition.y
      value: 0.053
      objectReference: {fileID: 0}
    - target: {fileID: -4216859302048453862, guid: 7c355c76844ccef44baab58dc486ea0b,
        type: 3}
      propertyPath: m_LocalPosition.z
      value: 0
      objectReference: {fileID: 0}
    - target: {fileID: -4216859302048453862, guid: 7c355c76844ccef44baab58dc486ea0b,
        type: 3}
      propertyPath: m_LocalRotation.x
      value: 0
      objectReference: {fileID: 0}
    - target: {fileID: -4216859302048453862, guid: 7c355c76844ccef44baab58dc486ea0b,
        type: 3}
      propertyPath: m_LocalRotation.y
      value: 0
      objectReference: {fileID: 0}
    - target: {fileID: -4216859302048453862, guid: 7c355c76844ccef44baab58dc486ea0b,
        type: 3}
      propertyPath: m_LocalRotation.z
      value: 0.7071068
      objectReference: {fileID: 0}
    - target: {fileID: -4216859302048453862, guid: 7c355c76844ccef44baab58dc486ea0b,
        type: 3}
      propertyPath: m_LocalRotation.w
      value: 0.7071068
      objectReference: {fileID: 0}
    - target: {fileID: -4216859302048453862, guid: 7c355c76844ccef44baab58dc486ea0b,
        type: 3}
      propertyPath: m_RootOrder
      value: 0
      objectReference: {fileID: 0}
    - target: {fileID: -4216859302048453862, guid: 7c355c76844ccef44baab58dc486ea0b,
        type: 3}
      propertyPath: m_LocalEulerAnglesHint.x
      value: 0
      objectReference: {fileID: 0}
    - target: {fileID: -4216859302048453862, guid: 7c355c76844ccef44baab58dc486ea0b,
        type: 3}
      propertyPath: m_LocalEulerAnglesHint.y
      value: 0
      objectReference: {fileID: 0}
    - target: {fileID: -4216859302048453862, guid: 7c355c76844ccef44baab58dc486ea0b,
        type: 3}
      propertyPath: m_LocalEulerAnglesHint.z
      value: 90
      objectReference: {fileID: 0}
    - target: {fileID: -4216859302048453862, guid: 7c355c76844ccef44baab58dc486ea0b,
        type: 3}
      propertyPath: m_LocalScale.x
      value: 31.046
      objectReference: {fileID: 0}
    - target: {fileID: -4216859302048453862, guid: 7c355c76844ccef44baab58dc486ea0b,
        type: 3}
      propertyPath: m_LocalScale.y
      value: 31.046
      objectReference: {fileID: 0}
    - target: {fileID: -4216859302048453862, guid: 7c355c76844ccef44baab58dc486ea0b,
        type: 3}
      propertyPath: m_LocalScale.z
      value: 31.046
      objectReference: {fileID: 0}
    - target: {fileID: -927199367670048503, guid: 7c355c76844ccef44baab58dc486ea0b,
        type: 3}
      propertyPath: m_Name
      value: VintageGun
      objectReference: {fileID: 0}
    m_RemovedComponents: []
  m_SourcePrefab: {fileID: 100100000, guid: 7c355c76844ccef44baab58dc486ea0b, type: 3}
--- !u!4 &5179802991251222916 stripped
Transform:
  m_CorrespondingSourceObject: {fileID: -4216859302048453862, guid: 7c355c76844ccef44baab58dc486ea0b,
    type: 3}
  m_PrefabInstance: {fileID: 187162919259167390}
  m_PrefabAsset: {fileID: 0}
